[
  {
    "__typename": "Product",
    "id": "11",
    "brand": "iñmfdpd",
    "description": "fqfwt abba ikpxov",
    "image": "www.lider.cl/catalogo/images/gamesIcon.svg",
    "price": 533752,
    "promotion": { "type": "palindrome", "description": "50%", "price": 266876 }
  },
  {
    "__typename": "Product",
    "id": "30",
    "brand": "ñszuabbaqiq",
    "description": "pqln spqwnrgy",
    "image": "www.lider.cl/catalogo/images/smartphoneIcon.svg",
    "price": 571646,
    "promotion": { "type": "palindrome", "description": "50%", "price": 285823 }
  }
]
